<?xml version="1.0" encoding="UTF-8" standalone="no"?>
<svg 
   xmlns="http://www.w3.org/2000/svg" 
   xmlns:xlink="http://www.w3.org/1999/xlink" 
   width="2.5in" 
   height="2.5in" 
   viewBox="-120 -120 240 240" 
   preserveAspectRatio="none" 
   class="card" 
   face="D1">
   <svg width="0" height="0" id="dot" viewBox="0 0 75 75" preserveAspectRatio="xMinYMid">
      <circle cx="37.5" cy="37.5" r="22.5" stroke="black"/>
   </svg>
   <rect width="239" height="239" x="-119.5" y="-119.5" rx="12" ry="12" fill="white" stroke="black"/>
   <use xlink:href="#dot" height="75" width="75" x="23.5" y="-97.5"/>
   <use xlink:href="#dot" height="75" width="75" x="-97.5" y="23.5"/>
</svg>